{
  "version": 3,
  "targets": {
    "net7.0-windows7.0": {}
  },
  "libraries": {},
  "projectFileDependencyGroups": {
    "net7.0-windows7.0": []
  },
  "packageFolders": {
    "C:\\Users\\UzhNU\\.nuget\\packages\\": {}
  },
  "project": {
    "version": "1.0.0",
    "restore": {
      "projectUniqueName": "C:\\Users\\UzhNU\\Desktop\\Дашина\\lab 22 csharp\\vector\\vector\\vector.csproj",
      "projectName": "vector",
      "projectPath": "C:\\Users\\UzhNU\\Desktop\\Дашина\\lab 22 csharp\\vector\\vector\\vector.csproj",
      "packagesPath": "C:\\Users\\UzhNU\\.nuget\\packages\\",
      "outputPath": "C:\\Users\\UzhNU\\Desktop\\Дашина\\lab 22 csharp\\vector\\vector\\obj\\",
      "projectStyle": "PackageReference",
      "configFilePaths": [
        "C:\\Users\\UzhNU\\AppData\\Roaming\\NuGet\\NuGet.Config",
        "C:\\Program Files (x86)\\NuGet\\Config\\Microsoft.VisualStudio.Offline.config"
      ],
      "originalTargetFrameworks": [
        "net7.0-windows"
      ],
      "sources": {
        "C:\\Program Files (x86)\\Microsoft SDKs\\NuGetPackages\\": {},
        "https://api.nuget.org/v3/index.json": {}
      },
      "frameworks": {
        "net7.0-windows7.0": {
          "targetAlias": "net7.0-windows",
          "projectReferences": {}
        }
      },
      "warningProperties": {
        "warnAsError": [
          "NU1605"
        ]
      }
    },
    "frameworks": {
      "net7.0-windows7.0": {
        "targetAlias": "net7.0-windows",
        "imports": [
          "net461",
          "net462",
          "net47",
          "net471",
          "net472",
          "net48",
          "net481"
        ],
        "assetTargetFallback": true,
        "warn": true,
        "frameworkReferences": {
          "Microsoft.NETCore.App": {
            "privateAssets": "all"
          },
          "Microsoft.WindowsDesktop.App.WindowsForms": {
            "privateAssets": "none"
          }
        },
        "runtimeIdentifierGraphPath": "C:\\Program Files\\dotnet\\sdk\\7.0.203\\RuntimeIdentifierGraph.json"
      }
    }
  }
}